module leboncoin

go 1.16

require (
	github.com/agnivade/levenshtein v1.1.1
	github.com/gin-contrib/cors v1.3.1
	github.com/gin-gonic/gin v1.7.4
	github.com/go-openapi/jsonreference v0.19.6 // indirect
	github.com/go-openapi/swag v0.19.15 // indirect
	github.com/go-playground/validator/v10 v10.9.0 // indirect
	github.com/golang/protobuf v1.5.2 // indirect
	github.com/json-iterator/go v1.1.12 // indirect
	github.com/mailru/easyjson v0.7.7 // indirect
	github.com/mattn/go-isatty v0.0.14 // indirect
	github.com/swaggo/files v0.0.0-20210815190702-a29dd2bc99b2
	github.com/swaggo/gin-swagger v1.3.2
	github.com/swaggo/swag v1.7.3
	github.com/ugorji/go v1.2.6 // indirect
	golang.org/x/net v0.0.0-20210929193557-e81a3d93ecf6 // indirect
	golang.org/x/sys v0.0.0-20211002104244-808efd93c36d // indirect
	golang.org/x/tools v0.1.7 // indirect
	google.golang.org/protobuf v1.27.1 // indirect
	gorm.io/driver/postgres v1.1.2
	gorm.io/gorm v1.21.15
)
