{
    "swagger": "2.0",
    "info": {
        "description": "This is a swagger specification for the api.",
        "title": "Leboncoin test challenge API",
        "contact": {},
        "version": "1.0"
    },
    "paths": {
        "/advert": {
            "post": {
                "description": "create a new advert",
                "consumes": [
                    "application/json"
                ],
                "produces": [
                    "application/json"
                ],
                "tags": [
                    "Advert"
                ],
                "summary": "create advert",
                "operationId": "api-create-new-advert",
                "parameters": [
                    {
                        "description": "Advert request data",
                        "name": "data",
                        "in": "body",
                        "required": true,
                        "schema": {
                            "$ref": "#/definitions/handlers.CreateAdvertRequest"
                        }
                    }
                ],
                "responses": {
                    "200": {
                        "description": "OK",
                        "schema": {
                            "$ref": "#/definitions/contracts.AdvertCreatedDTO"
                        }
                    },
                    "400": {
                        "description": "Bad Request",
                        "schema": {
                            "$ref": "#/definitions/errors.Error"
                        }
                    },
                    "500": {
                        "description": "Internal Server Error",
                        "schema": {
                            "$ref": "#/definitions/errors.Error"
                        }
                    }
                }
            }
        },
        "/advert/{id}": {
            "get": {
                "description": "get advert infos",
                "consumes": [
                    "application/json"
                ],
                "produces": [
                    "application/json"
                ],
                "tags": [
                    "Advert"
                ],
                "summary": "get advert",
                "operationId": "api-get-advert",
                "parameters": [
                    {
                        "type": "integer",
                        "description": "Advert id",
                        "name": "id",
                        "in": "path",
                        "required": true
                    }
                ],
                "responses": {
                    "200": {
                        "description": "OK",
                        "schema": {
                            "$ref": "#/definitions/contracts.AdvertDTO"
                        }
                    },
                    "400": {
                        "description": "Bad Request",
                        "schema": {
                            "$ref": "#/definitions/errors.Error"
                        }
                    },
                    "500": {
                        "description": "Internal Server Error",
                        "schema": {
                            "$ref": "#/definitions/errors.Error"
                        }
                    }
                }
            },
            "put": {
                "description": "update advert infos",
                "consumes": [
                    "application/json"
                ],
                "produces": [
                    "application/json"
                ],
                "tags": [
                    "Advert"
                ],
                "summary": "update advert",
                "operationId": "api-update-advert",
                "parameters": [
                    {
                        "type": "integer",
                        "description": "Advert id",
                        "name": "id",
                        "in": "path",
                        "required": true
                    },
                    {
                        "description": "Advert data",
                        "name": "id",
                        "in": "body",
                        "required": true,
                        "schema": {
                            "$ref": "#/definitions/handlers.UpdateAdvertRequest"
                        }
                    }
                ],
                "responses": {
                    "200": {
                        "description": "OK",
                        "schema": {
                            "$ref": "#/definitions/contracts.AdvertDTO"
                        }
                    },
                    "400": {
                        "description": "Bad Request",
                        "schema": {
                            "$ref": "#/definitions/errors.Error"
                        }
                    },
                    "500": {
                        "description": "Internal Server Error",
                        "schema": {
                            "$ref": "#/definitions/errors.Error"
                        }
                    }
                }
            },
            "delete": {
                "description": "delete advert record",
                "consumes": [
                    "application/json"
                ],
                "produces": [
                    "application/json"
                ],
                "tags": [
                    "Advert"
                ],
                "summary": "delete advert",
                "operationId": "api-delete-advert",
                "parameters": [
                    {
                        "type": "integer",
                        "description": "Advert id",
                        "name": "id",
                        "in": "path",
                        "required": true
                    }
                ],
                "responses": {
                    "200": {
                        "description": "OK",
                        "schema": {
                            "$ref": "#/definitions/contracts.AdvertDTO"
                        }
                    },
                    "400": {
                        "description": "Bad Request",
                        "schema": {
                            "$ref": "#/definitions/errors.Error"
                        }
                    },
                    "500": {
                        "description": "Internal Server Error",
                        "schema": {
                            "$ref": "#/definitions/errors.Error"
                        }
                    }
                }
            }
        },
        "/categories": {
            "get": {
                "description": "get all adverts categories",
                "consumes": [
                    "application/json"
                ],
                "produces": [
                    "application/json"
                ],
                "tags": [
                    "Category"
                ],
                "summary": "get all categories",
                "operationId": "api-get-categories",
                "responses": {
                    "200": {
                        "description": "OK",
                        "schema": {
                            "type": "array",
                            "items": {
                                "$ref": "#/definitions/contracts.CategoryDTO"
                            }
                        }
                    },
                    "400": {
                        "description": "Bad Request",
                        "schema": {
                            "$ref": "#/definitions/errors.Error"
                        }
                    },
                    "500": {
                        "description": "Internal Server Error",
                        "schema": {
                            "$ref": "#/definitions/errors.Error"
                        }
                    }
                }
            }
        },
        "/match": {
            "post": {
                "description": "calculate closest match",
                "consumes": [
                    "application/json"
                ],
                "produces": [
                    "application/json"
                ],
                "tags": [
                    "Advert"
                ],
                "summary": "calculate closest match",
                "operationId": "api-calculate-closest-match",
                "parameters": [
                    {
                        "description": "claculate request data",
                        "name": "data",
                        "in": "body",
                        "required": true,
                        "schema": {
                            "$ref": "#/definitions/handlers.CalculateMatchRequest"
                        }
                    }
                ],
                "responses": {
                    "200": {
                        "description": "OK",
                        "schema": {
                            "$ref": "#/definitions/contracts.AdvertCreatedDTO"
                        }
                    },
                    "400": {
                        "description": "Bad Request",
                        "schema": {
                            "$ref": "#/definitions/errors.Error"
                        }
                    },
                    "500": {
                        "description": "Internal Server Error",
                        "schema": {
                            "$ref": "#/definitions/errors.Error"
                        }
                    }
                }
            }
        }
    },
    "definitions": {
        "contracts.AdvertCreatedDTO": {
            "type": "object",
            "properties": {
                "brand_name": {
                    "type": "string"
                },
                "id": {
                    "type": "integer"
                },
                "model_name": {
                    "type": "string"
                }
            }
        },
        "contracts.AdvertDTO": {
            "type": "object",
            "properties": {
                "brand_name": {
                    "type": "string"
                },
                "description": {
                    "type": "string"
                },
                "id": {
                    "type": "integer"
                },
                "model_name": {
                    "type": "string"
                },
                "title": {
                    "type": "string"
                }
            }
        },
        "contracts.CategoryDTO": {
            "type": "object",
            "properties": {
                "category_name": {
                    "type": "string"
                },
                "id": {
                    "type": "integer"
                }
            }
        },
        "errors.Error": {
            "type": "object",
            "properties": {
                "code": {
                    "type": "integer"
                },
                "detail": {
                    "type": "string"
                },
                "id": {
                    "type": "string"
                },
                "status": {
                    "type": "string"
                }
            }
        },
        "handlers.CalculateMatchRequest": {
            "type": "object",
            "properties": {
                "model_name": {
                    "type": "string"
                }
            }
        },
        "handlers.CreateAdvertRequest": {
            "type": "object",
            "properties": {
                "category_id": {
                    "type": "integer"
                },
                "description": {
                    "type": "string"
                },
                "model": {
                    "type": "string"
                },
                "title": {
                    "type": "string"
                }
            }
        },
        "handlers.UpdateAdvertRequest": {
            "type": "object",
            "properties": {
                "description": {
                    "type": "string"
                },
                "title": {
                    "type": "string"
                }
            }
        }
    }
}